o001aa111|Camry|Black|150|76000
o002aa111|Camry|Green|133|85000
o003aa111|Camry|Black|0|104000
o004aa111|Camry|White|0|103000
o011aa11|Ford|White|0|99000
o011aa11|Ford|White|60|69000
o005aa111|Camry|White|100|85000
o006aa111|Camry|Blue|10|95000